{
    "pre_processing": {
        "type": "standard_scaling",
        "args": [
            [
                3.795664437021544,
                720.6352741137249,
                150.9149423163224
            ],
            [
                0.5005279284846212,
                269.59183657958727,
                106.2442569601714
            ]
        ]
    },
    "output_transformation": {
        "type": "lognormal"
    },
    "model_type": 1,
    "random_effect": {
        "std": null
    }
}