{
    "pre_processing": {
        "type": null,
        "args": []
    },
    "output_transformation": {
        "type": "lognormal"
    },
    "model_type": 2,
    "random_effect": {
        "std": null
    }
}